{
  "playerTableStats": [
    {
      "height": 183,
      "weight": 80,
      "age": 27,
      "isManOfTheMatch": false,
      "isActive": true,
      "playedPositions": "-FW-MC-ML-MR-",
      "playedPositionsShort": "M(CGD),AC",
      "teamRegionName": "Allemagne",
      "regionCode": "de",
      "tournamentShortName": "GB",
      "apps": 12,
      "subOn": 0,
      "manOfTheMatch": 2,
      "goal": 8,
      "assistTotal": 6,
      "shotsPerGame": 3.0833333333333335,
      "aerialWonPerGame": 0.083333333333333329,
      "name": "Leroy Sané",
      "firstName": "Leroy",
      "lastName": "Sané",
      "playerId": 144711,
      "positionText": "Forward",
      "teamId": 37,
      "teamName": "Bayern",
      "seasonId": 9649,
      "seasonName": "2023/2024",
      "isOpta": true,
      "tournamentId": 3,
      "tournamentRegionId": 81,
      "tournamentRegionCode": "de",
      "tournamentRegionName": "Allemagne",
      "tournamentName": "Bundesliga",
      "rating": 8.46,
      "minsPlayed": 1046,
      "yellowCard": 1.0,
      "redCard": 0.0,
      "passSuccess": 83.162217659137568,
      "ranking": 1
    },
    {
      "height": 188,
      "weight": 86,
      "age": 30,
      "isManOfTheMatch": false,
      "isActive": true,
      "playedPositions": "-AMC-FW-",
      "playedPositionsShort": "MO(C),AC",
      "teamRegionName": "Allemagne",
      "regionCode": "gb-eng",
      "tournamentShortName": "GB",
      "apps": 12,
      "subOn": 0,
      "manOfTheMatch": 4,
      "goal": 18,
      "assistTotal": 5,
      "shotsPerGame": 4.25,
      "aerialWonPerGame": 1.0,
      "name": "Harry Kane",
      "firstName": "Harry",
      "lastName": "Kane",
      "playerId": 83532,
      "positionText": "Forward",
      "teamId": 37,
      "teamName": "Bayern",
      "seasonId": 9649,
      "seasonName": "2023/2024",
      "isOpta": true,
      "tournamentId": 3,
      "tournamentRegionId": 81,
      "tournamentRegionCode": "de",
      "tournamentRegionName": "Allemagne",
      "tournamentName": "Bundesliga",
      "rating": 8.2925,
      "minsPlayed": 1052,
      "yellowCard": 1.0,
      "redCard": 0.0,
      "passSuccess": 72.58064516129032,
      "ranking": 2
    },
    {
      "height": 187,
      "weight": 82,
      "age": 27,
      "isManOfTheMatch": false,
      "isActive": true,
      "playedPositions": "-AML-FW-",
      "playedPositionsShort": "MO(G),AC",
      "teamRegionName": "Allemagne",
      "regionCode": "gn",
      "tournamentShortName": "GB",
      "apps": 10,
      "subOn": 2,
      "manOfTheMatch": 4,
      "goal": 15,
      "assistTotal": 1,
      "shotsPerGame": 3.4,
      "aerialWonPerGame": 2.7,
      "name": "Serhou Guirassy",
      "firstName": "Serhou",
      "lastName": "Guirassy",
      "playerId": 236506,
      "positionText": "Forward",
      "teamId": 41,
      "teamName": "Stuttgart",
      "seasonId": 9649,
      "seasonName": "2023/2024",
      "isOpta": true,
      "tournamentId": 3,
      "tournamentRegionId": 81,
      "tournamentRegionCode": "de",
      "tournamentRegionName": "Allemagne",
      "tournamentName": "Bundesliga",
      "rating": 8.163,
      "minsPlayed": 697,
      "yellowCard": 0.0,
      "redCard": 0.0,
      "passSuccess": 79.039301310043669,
      "ranking": 3
    },
    {
      "height": 186,
      "weight": 75,
      "age": 20,
      "isManOfTheMatch": false,
      "isActive": true,
      "playedPositions": "-MC-ML-MR-",
      "playedPositionsShort": "M(CGD)",
      "teamRegionName": "Espagne",
      "regionCode": "gb-eng",
      "tournamentShortName": "SLL",
      "apps": 12,
      "subOn": 0,
      "manOfTheMatch": 5,
      "goal": 11,
      "assistTotal": 2,
      "shotsPerGame": 2.5,
      "aerialWonPerGame": 0.83333333333333337,
      "name": "Jude Bellingham",
      "firstName": "Jude",
      "lastName": "Bellingham",
      "playerId": 379868,
      "positionText": "Midfielder",
      "teamId": 52,
      "teamName": "Real Madrid",
      "seasonId": 9682,
      "seasonName": "2023/2024",
      "isOpta": true,
      "tournamentId": 4,
      "tournamentRegionId": 206,
      "tournamentRegionCode": "es",
      "tournamentRegionName": "Espagne",
      "tournamentName": "LaLiga",
      "rating": 8.0658333333333339,
      "minsPlayed": 1025,
      "yellowCard": 1.0,
      "redCard": 0.0,
      "passSuccess": 89.795918367346943,
      "ranking": 4
    },
    {
      "height": 178,
      "weight": 75,
      "age": 24,
      "isManOfTheMatch": false,
      "isActive": true,
      "playedPositions": "-AMC-AML-AMR-FW-",
      "playedPositionsShort": "MO(CGD),AC",
      "teamRegionName": "France",
      "regionCode": "fr",
      "tournamentShortName": "FL1",
      "apps": 12,
      "subOn": 1,
      "manOfTheMatch": 4,
      "goal": 14,
      "assistTotal": 2,
      "shotsPerGame": 4.916666666666667,
      "aerialWonPerGame": 0.0,
      "name": "Kylian Mbappé",
      "firstName": "Kylian",
      "lastName": "Mbappé",
      "playerId": 300713,
      "positionText": "Forward",
      "teamId": 304,
      "teamName": "PSG",
      "seasonId": 9635,
      "seasonName": "2023/2024",
      "isOpta": true,
      "tournamentId": 22,
      "tournamentRegionId": 74,
      "tournamentRegionCode": "fr",
      "tournamentRegionName": "France",
      "tournamentName": "Ligue 1",
      "rating": 8.0391666666666666,
      "minsPlayed": 971,
      "yellowCard": 2.0,
      "redCard": 0.0,
      "passSuccess": 86.893203883495147,
      "ranking": 5
    },
    {
      "height": 189,
      "weight": 85,
      "age": 22,
      "isManOfTheMatch": false,
      "isActive": true,
      "playedPositions": "-FW-",
      "playedPositionsShort": "AC",
      "teamRegionName": "Allemagne",
      "regionCode": "ng",
      "tournamentShortName": "GB",
      "apps": 12,
      "subOn": 0,
      "manOfTheMatch": 2,
      "goal": 7,
      "assistTotal": 5,
      "shotsPerGame": 5.083333333333333,
      "aerialWonPerGame": 1.5833333333333333,
      "name": "Victor Boniface",
      "firstName": "Victor",
      "lastName": "Boniface",
      "playerId": 384000,
      "positionText": "Forward",
      "teamId": 36,
      "teamName": "Leverkusen",
      "seasonId": 9649,
      "seasonName": "2023/2024",
      "isOpta": true,
      "tournamentId": 3,
      "tournamentRegionId": 81,
      "tournamentRegionCode": "de",
      "tournamentRegionName": "Allemagne",
      "tournamentName": "Bundesliga",
      "rating": 7.8658333333333337,
      "minsPlayed": 1028,
      "yellowCard": 2.0,
      "redCard": 0.0,
      "passSuccess": 71.31782945736434,
      "ranking": 6
    },
    {
      "height": 182,
      "weight": 0,
      "age": 20,
      "isManOfTheMatch": false,
      "isActive": true,
      "playedPositions": "-AMR-",
      "playedPositionsShort": "MO(D)",
      "teamRegionName": "Italie",
      "regionCode": "ar",
      "tournamentShortName": "ISA",
      "apps": 11,
      "subOn": 0,
      "manOfTheMatch": 3,
      "goal": 6,
      "assistTotal": 1,
      "shotsPerGame": 2.4545454545454546,
      "aerialWonPerGame": 0.36363636363636365,
      "name": "Matías Soulé",
      "firstName": "Matías",
      "lastName": "Soulé",
      "playerId": 425079,
      "positionText": "Forward",
      "teamId": 2732,
      "teamName": "Frosinone",
      "seasonId": 9659,
      "seasonName": "2023/2024",
      "isOpta": true,
      "tournamentId": 5,
      "tournamentRegionId": 108,
      "tournamentRegionCode": "it",
      "tournamentRegionName": "Italie",
      "tournamentName": "Serie A",
      "rating": 7.827272727272728,
      "minsPlayed": 949,
      "yellowCard": 2.0,
      "redCard": 0.0,
      "passSuccess": 80.525164113785564,
      "ranking": 7
    },
    {
      "height": 171,
      "weight": 63,
      "age": 28,
      "isManOfTheMatch": false,
      "isActive": true,
      "playedPositions": "-DL-ML-",
      "playedPositionsShort": "D(G),M(G)",
      "teamRegionName": "Allemagne",
      "regionCode": "es",
      "tournamentShortName": "GB",
      "apps": 12,
      "subOn": 0,
      "manOfTheMatch": 4,
      "goal": 7,
      "assistTotal": 4,
      "shotsPerGame": 1.8333333333333333,
      "aerialWonPerGame": 0.33333333333333331,
      "name": "Álex Grimaldo",
      "firstName": "Álex",
      "lastName": "Grimaldo",
      "playerId": 107252,
      "positionText": "Defender",
      "teamId": 36,
      "teamName": "Leverkusen",
      "seasonId": 9649,
      "seasonName": "2023/2024",
      "isOpta": true,
      "tournamentId": 3,
      "tournamentRegionId": 81,
      "tournamentRegionCode": "de",
      "tournamentRegionName": "Allemagne",
      "tournamentName": "Bundesliga",
      "rating": 7.7674999999999992,
      "minsPlayed": 1075,
      "yellowCard": 1.0,
      "redCard": 0.0,
      "passSuccess": 88.20754716981132,
      "ranking": 8
    },
    {
      "height": 173,
      "weight": 66,
      "age": 21,
      "isManOfTheMatch": false,
      "isActive": true,
      "playedPositions": "-ML-MR-",
      "playedPositionsShort": "M(GD)",
      "teamRegionName": "Angleterre",
      "regionCode": "be",
      "tournamentShortName": "EPL",
      "apps": 10,
      "subOn": 2,
      "manOfTheMatch": 4,
      "goal": 2,
      "assistTotal": 5,
      "shotsPerGame": 1.8,
      "aerialWonPerGame": 0.1,
      "name": "Jérémy Doku",
      "firstName": "Jérémy",
      "lastName": "Doku",
      "playerId": 388098,
      "positionText": "Forward",
      "teamId": 167,
      "teamName": "Man City",
      "seasonId": 9618,
      "seasonName": "2023/2024",
      "isOpta": true,
      "tournamentId": 2,
      "tournamentRegionId": 252,
      "tournamentRegionCode": "gb-eng",
      "tournamentRegionName": "Angleterre",
      "tournamentName": "Premier League",
      "rating": 7.7070000000000007,
      "minsPlayed": 646,
      "yellowCard": 2.0,
      "redCard": 0.0,
      "passSuccess": 84.501845018450183,
      "ranking": 9
    },
    {
      "height": 174,
      "weight": 72,
      "age": 26,
      "isManOfTheMatch": false,
      "isActive": true,
      "playedPositions": "-FW-",
      "playedPositionsShort": "AC",
      "teamRegionName": "Italie",
      "regionCode": "ar",
      "tournamentShortName": "ISA",
      "apps": 13,
      "subOn": 1,
      "manOfTheMatch": 3,
      "goal": 13,
      "assistTotal": 1,
      "shotsPerGame": 3.3846153846153846,
      "aerialWonPerGame": 0.69230769230769229,
      "name": "Lautaro Martínez",
      "firstName": "Lautaro",
      "lastName": "Martínez",
      "playerId": 299344,
      "positionText": "Forward",
      "teamId": 75,
      "teamName": "Inter",
      "seasonId": 9659,
      "seasonName": "2023/2024",
      "isOpta": true,
      "tournamentId": 5,
      "tournamentRegionId": 108,
      "tournamentRegionCode": "it",
      "tournamentRegionName": "Italie",
      "tournamentName": "Serie A",
      "rating": 7.6938461538461524,
      "minsPlayed": 1075,
      "yellowCard": 2.0,
      "redCard": 0.0,
      "passSuccess": 77.742946708463947,
      "ranking": 10
    }
  ],
  "paging": {
    "currentPage": 1,
    "totalPages": 145,
    "resultsPerPage": 10,
    "totalResults": 1443,
    "firstRecordIndex": 1,
    "lastRecordIndex": 10
  },
  "statColumns": [
    "apps",
    "subOn",
    "minsPlayed",
    "goal",
    "assistTotal",
    "yellowCard",
    "redCard",
    "shotsPerGame",
    "passSuccess",
    "aerialWonPerGame",
    "manOfTheMatch"
  ]
}
